{
  "name": "Coming soon",
  "active": true,
  "version": 1,
  "template_url": "coming_soon",
  "image_url": "template_image.png",
  "index_url": "index.liquid",
  "config_url": "config.json",
  "template_groups": [
    {
      "id": "sector_1",
      "label": "Home",
      "keys": [
        {
          "id": "sector_1_status",
          "label": "Show",
          "input_type": "toggle",
          "default": true
        },
        {
          "id": "section_1_bg_img",
          "label": "Background image",
          "default": "https://pledre-assets.s3.us-east-2.amazonaws.com/school-templates/coming_soon/assets/img/bg.jpg",
          "input_type": "images"
        },
        {
          "id": "sector_1_description",
          "label": "Coming soon description",
          "default": "We're working hard to improve our website and we'll ready to launch after",
          "input_type": "text"
        },{
          "id": "sector_1_date",
          "label": "Launch date",
          "default": "2024/12/5",
          "input_type": "date"
        }
      ]
    }, {
      "id": "sector_2",
      "label": "Social",
      "keys": [
        {
          "id": "sector_2_status",
          "label": "Show",
          "input_type": "toggle",
          "default": true
        },
        {
          "id": "sector_2_twitter",
          "label": "Twitter URL",
          "default": "#",
          "input_type": "text"
        }, {
          "id": "sector_2_facebook",
          "label": "Facebook URL",
          "default": "#",
          "input_type": "text"
        },
        {
          "id": "sector_2_instagram",
          "label": "Instagram URL",
          "default": "#",
          "input_type": "text"
        }, {
          "id": "sector_2_linkedin",
          "label": "LinkedIn URL",
          "default": "#",
          "input_type": "text"
        }
      ]
    }, {
      "id": "sector_3",
      "label": "About us",
      "keys": [
        {
          "id": "sector_3_status",
          "label": "Show",
          "input_type": "toggle",
          "default": true
        },
        {
          "id": "sector_3_header",
          "label": "Header",
          "default": "Eum ipsam laborum deleniti velitena",
          "input_type": "text"
        }, {
          "id": "sector_3_subheader",
          "label": "Subheader",
          "default": "Voluptatem dignissimos provident quasi corporis voluptates sit assum perenda sruen jonee trave",
          "input_type": "text"
        },{
          "id": "sector_3_details",
          "label": "Details",
          "default": "Ullamco laboris nisi ut aliquip ex ea commodo consequat. Duis aute irure dolor in reprehenderit in voluptate velit esse cillum dolore eu fugiat nulla pariatur. Excepteur sint occaecat cupidatat non proident, sunt in culpa qui officia deserunt mollit anim id est laborum",
          "input_type": "text"
        },
        {
          "id": "sector_3_item_1",
          "label": "Item 1",
          "default": "Ullamco laboris nisi ut aliquip ex ea commodo consequa",
          "input_type": "text"
        }, {
          "id": "sector_3_item_2",
          "label": "Item 2",
          "default": "Duis aute irure dolor in reprehenderit in voluptate velit",
          "input_type": "text"
        },{
          "id": "sector_3_item_3",
          "label": "Item 3",
          "default": "Ullamco laboris nisi ut aliquip ex ea commodo consequat. Duis aute irure dolor in reprehenderit in",
          "input_type": "text"
        },
        {
          "id": "sector_3_additional_info",
          "label": "Additional information",
          "default": " Lorem ipsum dolor sit amet, consectetur adipiscing elit, sed do eiusmod tempor incididunt ut labore et dolore magna aliqua.",
          "input_type": "text"
        }
      ]
    }
  ]
}
